^C:\USERS\ERIC\DESKTOP\CODING\CPP PROJEKTE\MODELCONVERTER\DEPENDENCIES\ASSIMP-5.0.1\BUILD\CONTRIB\IRRXML\IRRXML.DIR\DEBUG\IRRXML.OBJ
C:\USERS\ERIC\DESKTOP\CODING\CPP PROJEKTE\MODELCONVERTER\DEPENDENCIES\ASSIMP-5.0.1\BUILD\CONTRIB\IRRXML\IRRXML.DIR\DEBUG\IRRXML.OBJ
C:\WINDOWS\SYSTEM32\TZRES.DLL
